R : des premiers pas au modèle linéaire
…
---
template: importation
## Vérifier l'importation

Dans le cas d'objet `tibble` obtenu avec l'importation du package `readr`, l'affichage du tableau ne donne que les premières lignes

```r
SamaresEq_readr
```

```
## # A tibble: 2,380 x 9
##     Site NomSite Distance Arbre Poids Surface Largeur Longueur CircArbre
##    <dbl> <chr>      <dbl> <dbl> <dbl>   <dbl>   <dbl>    <dbl>     <dbl>
##  1     4 Gornies      6.3     1  11     0.738   0.427     2.32      18.5
##  2     4 Gornies      6.3     1  15     0.700   0.489     2.16      18.5
##  3     4 Gornies      6.3     1  14.6   0.758   0.444     2.28      18.5
##  4     4 Gornies      6.3     1  13.8   0.779   0.474     2.26      18.5
##  5     4 Gornies      6.3     1  12.2   0.620   0.404     2.03      18.5
##  6     4 Gornies      6.3     1  11.1   0.537   0.339     2.04      18.5
##  7     4 Gornies      6.3     1  14.2   0.676   0.422     2.23      18.5
##  8     4 Gornies      6.3     1  15.6   0.708   0.452     2.15      18.5
##  9     4 Gornies      6.3     1  15.1   0.613   0.377     2.15      18.5
## 10     4 Gornies      6.3     1  13.3   0.756   0.447     2.15      18.5
## # … with 2,370 more rows
```
…
---
template: manip_tidy 
## Opérations sur les variables (les colonnes)

### Créer une nouvelle variable

**mutate** : pour ajouter une colonne 

```r
mutate(SamaresEq_readr, Disp = Surface / Poids)
```

```
## # A tibble: 2,380 x 10
##     Site NomSite Distance Arbre Poids Surface Largeur Longueur CircArbre   Disp
##    <dbl> <chr>      <dbl> <dbl> <dbl>   <dbl>   <dbl>    <dbl>     <dbl>  <dbl>
##  1     4 Gornies      6.3     1  11     0.738   0.427     2.32      18.5 0.0671
##  2     4 Gornies      6.3     1  15     0.700   0.489     2.16      18.5 0.0466
##  3     4 Gornies      6.3     1  14.6   0.758   0.444     2.28      18.5 0.0520
##  4     4 Gornies      6.3     1  13.8   0.779   0.474     2.26      18.5 0.0564
##  5     4 Gornies      6.3     1  12.2   0.620   0.404     2.03      18.5 0.0509
##  6     4 Gornies      6.3     1  11.1   0.537   0.339     2.04      18.5 0.0484
##  7     4 Gornies      6.3     1  14.2   0.676   0.422     2.23      18.5 0.0476
##  8     4 Gornies      6.3     1  15.6   0.708   0.452     2.15      18.5 0.0454
##  9     4 Gornies      6.3     1  15.1   0.613   0.377     2.15      18.5 0.0406
## 10     4 Gornies      6.3     1  13.3   0.756   0.447     2.15      18.5 0.0569
## # … with 2,370 more rows
```

---
template: manip_tidy 
## Opérations sur les variables (les colonnes)

### Combiner des commandes

```r
mutate(select(SamaresEq_readr, Surface, Poids) , Disp = Surface / Poids)
```

```
## # A tibble: 2,380 x 3
##    Surface Poids   Disp
##      <dbl> <dbl>  <dbl>
##  1   0.738  11   0.0671
##  2   0.700  15   0.0466
##  3   0.758  14.6 0.0520
##  4   0.779  13.8 0.0564
##  5   0.620  12.2 0.0509
##  6   0.537  11.1 0.0484
##  7   0.676  14.2 0.0476
##  8   0.708  15.6 0.0454
##  9   0.613  15.1 0.0406
## 10   0.756  13.3 0.0569
## # … with 2,370 more rows
```
…
---

count: false

.panel1-pipe-auto[

```r
*SamaresEq_readr
```
]
 
.panel2-pipe-auto[

```
## # A tibble: 2,380 x 9
##     Site NomSite Distance Arbre Poids Surface Largeur Longueur CircArbre
##    <dbl> <chr>      <dbl> <dbl> <dbl>   <dbl>   <dbl>    <dbl>     <dbl>
##  1     4 Gornies      6.3     1  11     0.738   0.427     2.32      18.5
##  2     4 Gornies      6.3     1  15     0.700   0.489     2.16      18.5
##  3     4 Gornies      6.3     1  14.6   0.758   0.444     2.28      18.5
##  4     4 Gornies      6.3     1  13.8   0.779   0.474     2.26      18.5
##  5     4 Gornies      6.3     1  12.2   0.620   0.404     2.03      18.5
##  6     4 Gornies      6.3     1  11.1   0.537   0.339     2.04      18.5
##  7     4 Gornies      6.3     1  14.2   0.676   0.422     2.23      18.5
##  8     4 Gornies      6.3     1  15.6   0.708   0.452     2.15      18.5
##  9     4 Gornies      6.3     1  15.1   0.613   0.377     2.15      18.5
## 10     4 Gornies      6.3     1  13.3   0.756   0.447     2.15      18.5
## # … with 2,370 more rows
```
…
---
count: false

.panel1-pipe-auto[

```r
SamaresEq_readr %>%
* select(Surface, Poids)
```
]
 
.panel2-pipe-auto[

```
## # A tibble: 2,380 x 2
##    Surface Poids
##      <dbl> <dbl>
##  1   0.738  11  
##  2   0.700  15  
##  3   0.758  14.6
##  4   0.779  13.8
##  5   0.620  12.2
##  6   0.537  11.1
##  7   0.676  14.2
##  8   0.708  15.6
##  9   0.613  15.1
## 10   0.756  13.3
## # … with 2,370 more rows
```
…
.panel1-pipe-auto[

```r
SamaresEq_readr %>%
  select(Surface, Poids) %>%
* mutate( Disp = Surface / Poids)
```
]
 
.panel2-pipe-auto[

```
## # A tibble: 2,380 x 3
##    Surface Poids   Disp
##      <dbl> <dbl>  <dbl>
##  1   0.738  11   0.0671
##  2   0.700  15   0.0466
##  3   0.758  14.6 0.0520
##  4   0.779  13.8 0.0564
##  5   0.620  12.2 0.0509
##  6   0.537  11.1 0.0484
##  7   0.676  14.2 0.0476
##  8   0.708  15.6 0.0454
##  9   0.613  15.1 0.0406
## 10   0.756  13.3 0.0569
## # … with 2,370 more rows
```
…
---

count: false

.panel1-ex_select-auto[

```r
*SamaresEq_readr
```
]
 
.panel2-ex_select-auto[

```
## # A tibble: 2,380 x 9
##     Site NomSite Distance Arbre Poids Surface Largeur Longueur CircArbre
##    <dbl> <chr>      <dbl> <dbl> <dbl>   <dbl>   <dbl>    <dbl>     <dbl>
##  1     4 Gornies      6.3     1  11     0.738   0.427     2.32      18.5
##  2     4 Gornies      6.3     1  15     0.700   0.489     2.16      18.5
##  3     4 Gornies      6.3     1  14.6   0.758   0.444     2.28      18.5
##  4     4 Gornies      6.3     1  13.8   0.779   0.474     2.26      18.5
##  5     4 Gornies      6.3     1  12.2   0.620   0.404     2.03      18.5
##  6     4 Gornies      6.3     1  11.1   0.537   0.339     2.04      18.5
##  7     4 Gornies      6.3     1  14.2   0.676   0.422     2.23      18.5
##  8     4 Gornies      6.3     1  15.6   0.708   0.452     2.15      18.5
##  9     4 Gornies      6.3     1  15.1   0.613   0.377     2.15      18.5
## 10     4 Gornies      6.3     1  13.3   0.756   0.447     2.15      18.5
## # … with 2,370 more rows
```
…
---
count: false

.panel1-ex_select-auto[

```r
SamaresEq_readr %>%
* mutate( Prod = Largeur * Longueur)
```
]
 
.panel2-ex_select-auto[

```
## # A tibble: 2,380 x 10
##     Site NomSite Distance Arbre Poids Surface Largeur Longueur CircArbre  Prod
##    <dbl> <chr>      <dbl> <dbl> <dbl>   <dbl>   <dbl>    <dbl>     <dbl> <dbl>
##  1     4 Gornies      6.3     1  11     0.738   0.427     2.32      18.5 0.989
##  2     4 Gornies      6.3     1  15     0.700   0.489     2.16      18.5 1.06 
##  3     4 Gornies      6.3     1  14.6   0.758   0.444     2.28      18.5 1.01 
##  4     4 Gornies      6.3     1  13.8   0.779   0.474     2.26      18.5 1.07 
##  5     4 Gornies      6.3     1  12.2   0.620   0.404     2.03      18.5 0.821
##  6     4 Gornies      6.3     1  11.1   0.537   0.339     2.04      18.5 0.692
##  7     4 Gornies      6.3     1  14.2   0.676   0.422     2.23      18.5 0.940
##  8     4 Gornies      6.3     1  15.6   0.708   0.452     2.15      18.5 0.971
##  9     4 Gornies      6.3     1  15.1   0.613   0.377     2.15      18.5 0.810
## 10     4 Gornies      6.3     1  13.3   0.756   0.447     2.15      18.5 0.961
## # … with 2,370 more rows
```
…
.panel1-ex_select-auto[

```r
SamaresEq_readr %>%
  mutate( Prod = Largeur * Longueur) %>%
* mutate( Diff_surf = Prod - Surface)
```
]
 
.panel2-ex_select-auto[

```
## # A tibble: 2,380 x 11
##     Site NomSite Distance Arbre Poids Surface Largeur Longueur CircArbre  Prod
##    <dbl> <chr>      <dbl> <dbl> <dbl>   <dbl>   <dbl>    <dbl>     <dbl> <dbl>
##  1     4 Gornies      6.3     1  11     0.738   0.427     2.32      18.5 0.989
##  2     4 Gornies      6.3     1  15     0.700   0.489     2.16      18.5 1.06 
##  3     4 Gornies      6.3     1  14.6   0.758   0.444     2.28      18.5 1.01 
##  4     4 Gornies      6.3     1  13.8   0.779   0.474     2.26      18.5 1.07 
##  5     4 Gornies      6.3     1  12.2   0.620   0.404     2.03      18.5 0.821
##  6     4 Gornies      6.3     1  11.1   0.537   0.339     2.04      18.5 0.692
##  7     4 Gornies      6.3     1  14.2   0.676   0.422     2.23      18.5 0.940
##  8     4 Gornies      6.3     1  15.6   0.708   0.452     2.15      18.5 0.971
##  9     4 Gornies      6.3     1  15.1   0.613   0.377     2.15      18.5 0.810
## 10     4 Gornies      6.3     1  13.3   0.756   0.447     2.15      18.5 0.961
## # … with 2,370 more rows, and 1 more variable: Diff_surf <dbl>
```
…
.panel1-ex_select-auto[

```r
SamaresEq_readr %>%
  mutate( Prod = Largeur * Longueur) %>%
  mutate( Diff_surf = Prod - Surface) %>%
* mutate( Disp = Surface / Poids, log_disp = log(Disp))
```
]
 
.panel2-ex_select-auto[

```
## # A tibble: 2,380 x 13
##     Site NomSite Distance Arbre Poids Surface Largeur Longueur CircArbre  Prod
##    <dbl> <chr>      <dbl> <dbl> <dbl>   <dbl>   <dbl>    <dbl>     <dbl> <dbl>
##  1     4 Gornies      6.3     1  11     0.738   0.427     2.32      18.5 0.989
##  2     4 Gornies      6.3     1  15     0.700   0.489     2.16      18.5 1.06 
##  3     4 Gornies      6.3     1  14.6   0.758   0.444     2.28      18.5 1.01 
##  4     4 Gornies      6.3     1  13.8   0.779   0.474     2.26      18.5 1.07 
##  5     4 Gornies      6.3     1  12.2   0.620   0.404     2.03      18.5 0.821
##  6     4 Gornies      6.3     1  11.1   0.537   0.339     2.04      18.5 0.692
##  7     4 Gornies      6.3     1  14.2   0.676   0.422     2.23      18.5 0.940
##  8     4 Gornies      6.3     1  15.6   0.708   0.452     2.15      18.5 0.971
##  9     4 Gornies      6.3     1  15.1   0.613   0.377     2.15      18.5 0.810
## 10     4 Gornies      6.3     1  13.3   0.756   0.447     2.15      18.5 0.961
## # … with 2,370 more rows, and 3 more variables: Diff_surf <dbl>, Disp <dbl>,
## #   log_disp <dbl>
```
…
---

count: false

.panel1-sum_fact-auto[

```r
*SamaresEq_readr
```
]
 
.panel2-sum_fact-auto[

```
## # A tibble: 2,380 x 9
##     Site NomSite Distance Arbre Poids Surface Largeur Longueur CircArbre
##    <dbl> <chr>      <dbl> <dbl> <dbl>   <dbl>   <dbl>    <dbl>     <dbl>
##  1     4 Gornies      6.3     1  11     0.738   0.427     2.32      18.5
##  2     4 Gornies      6.3     1  15     0.700   0.489     2.16      18.5
##  3     4 Gornies      6.3     1  14.6   0.758   0.444     2.28      18.5
##  4     4 Gornies      6.3     1  13.8   0.779   0.474     2.26      18.5
##  5     4 Gornies      6.3     1  12.2   0.620   0.404     2.03      18.5
##  6     4 Gornies      6.3     1  11.1   0.537   0.339     2.04      18.5
##  7     4 Gornies      6.3     1  14.2   0.676   0.422     2.23      18.5
##  8     4 Gornies      6.3     1  15.6   0.708   0.452     2.15      18.5
##  9     4 Gornies      6.3     1  15.1   0.613   0.377     2.15      18.5
## 10     4 Gornies      6.3     1  13.3   0.756   0.447     2.15      18.5
## # … with 2,370 more rows
```
…
---
count: false

.panel1-sum_fact-auto[

```r
SamaresEq_readr %>%
* mutate(Site = as.factor(Site), Arbre = as.factor(Site))
```
]
 
.panel2-sum_fact-auto[

```
## # A tibble: 2,380 x 9
##    Site  NomSite Distance Arbre Poids Surface Largeur Longueur CircArbre
##    <fct> <chr>      <dbl> <fct> <dbl>   <dbl>   <dbl>    <dbl>     <dbl>
##  1 4     Gornies      6.3 4      11     0.738   0.427     2.32      18.5
##  2 4     Gornies      6.3 4      15     0.700   0.489     2.16      18.5
##  3 4     Gornies      6.3 4      14.6   0.758   0.444     2.28      18.5
##  4 4     Gornies      6.3 4      13.8   0.779   0.474     2.26      18.5
##  5 4     Gornies      6.3 4      12.2   0.620   0.404     2.03      18.5
##  6 4     Gornies      6.3 4      11.1   0.537   0.339     2.04      18.5
##  7 4     Gornies      6.3 4      14.2   0.676   0.422     2.23      18.5
##  8 4     Gornies      6.3 4      15.6   0.708   0.452     2.15      18.5
##  9 4     Gornies      6.3 4      15.1   0.613   0.377     2.15      18.5
## 10 4     Gornies      6.3 4      13.3   0.756   0.447     2.15      18.5
## # … with 2,370 more rows
```
…
*SamaresEq_readr
```
]
 
.panel2-sum_fact-auto[

```
## # A tibble: 1 x 6
##   Distance Poids Surface Largeur Longueur CircArbre
##      <dbl> <dbl>   <dbl>   <dbl>    <dbl>     <dbl>
## 1     8.99  26.6   0.823   0.451     2.49      26.2
```

```
## # A tibble: 2,380 x 9
##     Site NomSite Distance Arbre Poids Surface Largeur Longueur CircArbre
##    <dbl> <chr>      <dbl> <dbl> <dbl>   <dbl>   <dbl>    <dbl>     <dbl>
##  1     4 Gornies      6.3     1  11     0.738   0.427     2.32      18.5
##  2     4 Gornies      6.3     1  15     0.700   0.489     2.16      18.5
##  3     4 Gornies      6.3     1  14.6   0.758   0.444     2.28      18.5
##  4     4 Gornies      6.3     1  13.8   0.779   0.474     2.26      18.5
##  5     4 Gornies      6.3     1  12.2   0.620   0.404     2.03      18.5
##  6     4 Gornies      6.3     1  11.1   0.537   0.339     2.04      18.5
##  7     4 Gornies      6.3     1  14.2   0.676   0.422     2.23      18.5
##  8     4 Gornies      6.3     1  15.6   0.708   0.452     2.15      18.5
##  9     4 Gornies      6.3     1  15.1   0.613   0.377     2.15      18.5
## 10     4 Gornies      6.3     1  13.3   0.756   0.447     2.15      18.5
## # … with 2,370 more rows
```
…
.panel2-sum_fact-auto[

```
## # A tibble: 1 x 6
##   Distance Poids Surface Largeur Longueur CircArbre
##      <dbl> <dbl>   <dbl>   <dbl>    <dbl>     <dbl>
## 1     8.99  26.6   0.823   0.451     2.49      26.2
```

```
## # A tibble: 2,380 x 9
##    Site  NomSite Distance Arbre Poids Surface Largeur Longueur CircArbre
##    <fct> <chr>      <dbl> <fct> <dbl>   <dbl>   <dbl>    <dbl>     <dbl>
##  1 4     Gornies      6.3 1      11     0.738   0.427     2.32      18.5
##  2 4     Gornies      6.3 1      15     0.700   0.489     2.16      18.5
##  3 4     Gornies      6.3 1      14.6   0.758   0.444     2.28      18.5
##  4 4     Gornies      6.3 1      13.8   0.779   0.474     2.26      18.5
##  5 4     Gornies      6.3 1      12.2   0.620   0.404     2.03      18.5
##  6 4     Gornies      6.3 1      11.1   0.537   0.339     2.04      18.5
##  7 4     Gornies      6.3 1      14.2   0.676   0.422     2.23      18.5
##  8 4     Gornies      6.3 1      15.6   0.708   0.452     2.15      18.5
##  9 4     Gornies      6.3 1      15.1   0.613   0.377     2.15      18.5
## 10 4     Gornies      6.3 1      13.3   0.756   0.447     2.15      18.5
## # … with 2,370 more rows
```
…
---

count: false

.panel1-summarise_ex1-auto[

```r
*SamaresEq_disp
```
]
 
.panel2-summarise_ex1-auto[

```
## # A tibble: 2,380 x 12
##    NomSite Distance Arbre Poids Surface Largeur Longueur CircArbre  Prod
##    <chr>      <dbl> <dbl> <dbl>   <dbl>   <dbl>    <dbl>     <dbl> <dbl>
##  1 Gornies      6.3     1  11     0.738   0.427     2.32      18.5 0.989
##  2 Gornies      6.3     1  15     0.700   0.489     2.16      18.5 1.06 
##  3 Gornies      6.3     1  14.6   0.758   0.444     2.28      18.5 1.01 
##  4 Gornies      6.3     1  13.8   0.779   0.474     2.26      18.5 1.07 
##  5 Gornies      6.3     1  12.2   0.620   0.404     2.03      18.5 0.821
##  6 Gornies      6.3     1  11.1   0.537   0.339     2.04      18.5 0.692
##  7 Gornies      6.3     1  14.2   0.676   0.422     2.23      18.5 0.940
##  8 Gornies      6.3     1  15.6   0.708   0.452     2.15      18.5 0.971
##  9 Gornies      6.3     1  15.1   0.613   0.377     2.15      18.5 0.810
## 10 Gornies      6.3     1  13.3   0.756   0.447     2.15      18.5 0.961
## # … with 2,370 more rows, and 3 more variables: Diff_surf <dbl>, Disp <dbl>,
## #   log_disp <dbl>
```
…
---

count: false

.panel1-group_by_1-auto[

```r
*SamaresEq_disp
```
]
 
.panel2-group_by_1-auto[

```
## # A tibble: 2,380 x 12
##    NomSite Distance Arbre Poids Surface Largeur Longueur CircArbre  Prod
##    <chr>      <dbl> <dbl> <dbl>   <dbl>   <dbl>    <dbl>     <dbl> <dbl>
##  1 Gornies      6.3     1  11     0.738   0.427     2.32      18.5 0.989
##  2 Gornies      6.3     1  15     0.700   0.489     2.16      18.5 1.06 
##  3 Gornies      6.3     1  14.6   0.758   0.444     2.28      18.5 1.01 
##  4 Gornies      6.3     1  13.8   0.779   0.474     2.26      18.5 1.07 
##  5 Gornies      6.3     1  12.2   0.620   0.404     2.03      18.5 0.821
##  6 Gornies      6.3     1  11.1   0.537   0.339     2.04      18.5 0.692
##  7 Gornies      6.3     1  14.2   0.676   0.422     2.23      18.5 0.940
##  8 Gornies      6.3     1  15.6   0.708   0.452     2.15      18.5 0.971
##  9 Gornies      6.3     1  15.1   0.613   0.377     2.15      18.5 0.810
## 10 Gornies      6.3     1  13.3   0.756   0.447     2.15      18.5 0.961
## # … with 2,370 more rows, and 3 more variables: Diff_surf <dbl>, Disp <dbl>,
## #   log_disp <dbl>
```
…
---
count: false

.panel1-group_by_1-auto[

```r
SamaresEq_disp %>%
* group_by( NomSite)
```
]
 
.panel2-group_by_1-auto[

```
## # A tibble: 2,380 x 12
## # Groups:   NomSite [7]
##    NomSite Distance Arbre Poids Surface Largeur Longueur CircArbre  Prod
##    <chr>      <dbl> <dbl> <dbl>   <dbl>   <dbl>    <dbl>     <dbl> <dbl>
##  1 Gornies      6.3     1  11     0.738   0.427     2.32      18.5 0.989
##  2 Gornies      6.3     1  15     0.700   0.489     2.16      18.5 1.06 
##  3 Gornies      6.3     1  14.6   0.758   0.444     2.28      18.5 1.01 
##  4 Gornies      6.3     1  13.8   0.779   0.474     2.26      18.5 1.07 
##  5 Gornies      6.3     1  12.2   0.620   0.404     2.03      18.5 0.821
##  6 Gornies      6.3     1  11.1   0.537   0.339     2.04      18.5 0.692
##  7 Gornies      6.3     1  14.2   0.676   0.422     2.23      18.5 0.940
##  8 Gornies      6.3     1  15.6   0.708   0.452     2.15      18.5 0.971
##  9 Gornies      6.3     1  15.1   0.613   0.377     2.15      18.5 0.810
## 10 Gornies      6.3     1  13.3   0.756   0.447     2.15      18.5 0.961
## # … with 2,370 more rows, and 3 more variables: Diff_surf <dbl>, Disp <dbl>,
## #   log_disp <dbl>
```
…
.panel1-group_by_1-auto[

```r
SamaresEq_disp %>%
  group_by( NomSite) %>%
  summarise( Surface_m = mean (Surface)) %>%
* print(n = 3)
```
]
 
.panel2-group_by_1-auto[

```
## # A tibble: 7 x 2
##   NomSite  Surface_m
##   <chr>        <dbl>
## 1 Gornies      0.849
## 2 Grenou_1     0.810
## 3 Grenou_2     0.853
## # … with 4 more rows
```
…
**group_by**

* Calculer des effectifs pour chaque Site 

```r
  SamaresEq_disp %>% 
  group_by( NomSite) %>%
  summarise( n_obs = n())  %>%
  print(n = 3)
```

```
## # A tibble: 7 x 2
##   NomSite  n_obs
##   <chr>    <int>
## 1 Gornies    580
## 2 Grenou_1   280
## 3 Grenou_2   300
## # … with 4 more rows
```
…
---

count: false

.panel1-group_by_3-auto[

```r
* SamaresEq_disp
```
]
 
.panel2-group_by_3-auto[

```
## # A tibble: 2,380 x 12
##    NomSite Distance Arbre Poids Surface Largeur Longueur CircArbre  Prod
##    <chr>      <dbl> <dbl> <dbl>   <dbl>   <dbl>    <dbl>     <dbl> <dbl>
##  1 Gornies      6.3     1  11     0.738   0.427     2.32      18.5 0.989
##  2 Gornies      6.3     1  15     0.700   0.489     2.16      18.5 1.06 
##  3 Gornies      6.3     1  14.6   0.758   0.444     2.28      18.5 1.01 
##  4 Gornies      6.3     1  13.8   0.779   0.474     2.26      18.5 1.07 
##  5 Gornies      6.3     1  12.2   0.620   0.404     2.03      18.5 0.821
##  6 Gornies      6.3     1  11.1   0.537   0.339     2.04      18.5 0.692
##  7 Gornies      6.3     1  14.2   0.676   0.422     2.23      18.5 0.940
##  8 Gornies      6.3     1  15.6   0.708   0.452     2.15      18.5 0.971
##  9 Gornies      6.3     1  15.1   0.613   0.377     2.15      18.5 0.810
## 10 Gornies      6.3     1  13.3   0.756   0.447     2.15      18.5 0.961
## # … with 2,370 more rows, and 3 more variables: Diff_surf <dbl>, Disp <dbl>,
## #   log_disp <dbl>
```
…
