R : des premiers pas au modèle linéaire
…
```r
freqdata %>%  mutate(m= mean(freqC)) %>%
  mutate( Ehat = freqC - m) %>%
  mutate( E2hat = Ehat^2) %>%
  summarise(RSSM1 =sum(E2hat)) %>%
  as.numeric()-> RSSM0
*freqdata %>% group_by(Sexe) %>%
* mutate(m= mean(freqC))
```
]
 
.panel2-rss-user[

```
## # A tibble: 40 x 4
## # Groups:   Sexe [2]
##    freqC Sport Sexe      m
##    <dbl> <int> <chr> <dbl>
##  1    82     1 M      84.6
##  2    82     1 F      84.3
##  3    77     1 M      84.6
##  4    79     1 F      84.3
##  5    81     1 M      84.6
##  6    83     1 F      84.3
##  7    76     1 M      84.6
##  8    80     1 F      84.3
##  9    80     2 M      84.6
## 10    83     2 F      84.3
## # … with 30 more rows
```
…
.panel2-rss-user[

```
## # A tibble: 40 x 5
## # Groups:   Sexe [2]
##    freqC Sport Sexe      m  Ehat
##    <dbl> <int> <chr> <dbl> <dbl>
##  1    82     1 M      84.6 -2.55
##  2    82     1 F      84.3 -2.30
##  3    77     1 M      84.6 -7.55
##  4    79     1 F      84.3 -5.30
##  5    81     1 M      84.6 -3.55
##  6    83     1 F      84.3 -1.30
##  7    76     1 M      84.6 -8.55
##  8    80     1 F      84.3 -4.30
##  9    80     2 M      84.6 -4.55
## 10    83     2 F      84.3 -1.30
## # … with 30 more rows
```
…
.panel2-rss-user[

```
## # A tibble: 40 x 6
## # Groups:   Sexe [2]
##    freqC Sport Sexe      m  Ehat E2hat
##    <dbl> <int> <chr> <dbl> <dbl> <dbl>
##  1    82     1 M      84.6 -2.55  6.50
##  2    82     1 F      84.3 -2.30  5.29
##  3    77     1 M      84.6 -7.55 57.0 
##  4    79     1 F      84.3 -5.30 28.1 
##  5    81     1 M      84.6 -3.55 12.6 
##  6    83     1 F      84.3 -1.30  1.69
##  7    76     1 M      84.6 -8.55 73.1 
##  8    80     1 F      84.3 -4.30 18.5 
##  9    80     2 M      84.6 -4.55 20.7 
## 10    83     2 F      84.3 -1.30  1.69
## # … with 30 more rows
```
…
.panel2-rss-user[

```
## # A tibble: 40 x 6
##    freqC Sport Sexe      m  Ehat E2hat
##    <dbl> <int> <chr> <dbl> <dbl> <dbl>
##  1    82     1 M      84.6 -2.55  6.50
##  2    82     1 F      84.3 -2.30  5.29
##  3    77     1 M      84.6 -7.55 57.0 
##  4    79     1 F      84.3 -5.30 28.1 
##  5    81     1 M      84.6 -3.55 12.6 
##  6    83     1 F      84.3 -1.30  1.69
##  7    76     1 M      84.6 -8.55 73.1 
##  8    80     1 F      84.3 -4.30 18.5 
##  9    80     2 M      84.6 -4.55 20.7 
## 10    83     2 F      84.3 -1.30  1.69
## # … with 30 more rows
```
…
